<?xml version="1.0" encoding="UTF-16"?>
<!DOCTYPE svg PUBLIC "-//W3C//DTD SVG 1.1//EN" "http://www.w3.org/Graphics/SVG/1.1/DTD/svg11.dtd">
<!-- Creator: CorelDRAW 2019 (64-Bit) -->
<svg xmlns="http://www.w3.org/2000/svg" xml:space="preserve" width="39.3701in" height="39.3701in" version="1.1" style="shape-rendering:geometricPrecision; text-rendering:geometricPrecision; image-rendering:optimizeQuality; fill-rule:evenodd; clip-rule:evenodd"
viewBox="0 0 39370.08 39370.08"
 xmlns:xlink="http://www.w3.org/1999/xlink">
 <defs>
  <style type="text/css">
   <![CDATA[
    .str0 {stroke:#CAD1E7;stroke-width:111.11;stroke-miterlimit:2.61313}
    .str1 {stroke:#283C55;stroke-width:13.89;stroke-miterlimit:2.61313}
    .str2 {stroke:#D2BB8E;stroke-width:6.94;stroke-miterlimit:10}
    .fil15 {fill:none;fill-rule:nonzero}
    .fil10 {fill:#1B2445;fill-rule:nonzero}
    .fil13 {fill:#233062;fill-rule:nonzero}
    .fil6 {fill:#283C55;fill-rule:nonzero}
    .fil3 {fill:#484889;fill-rule:nonzero}
    .fil22 {fill:#506E90;fill-rule:nonzero}
    .fil20 {fill:#7FAC29;fill-rule:nonzero}
    .fil4 {fill:#9DB5DE;fill-rule:nonzero}
    .fil2 {fill:#AA391E;fill-rule:nonzero}
    .fil12 {fill:#B8745C;fill-rule:nonzero}
    .fil7 {fill:#CAD1E7;fill-rule:nonzero}
    .fil16 {fill:#D2BB8E;fill-rule:nonzero}
    .fil11 {fill:#E28668;fill-rule:nonzero}
    .fil8 {fill:#E4DFD3;fill-rule:nonzero}
    .fil1 {fill:#E9807D;fill-rule:nonzero}
    .fil0 {fill:#EB6860;fill-rule:nonzero}
    .fil14 {fill:#ECDFBE;fill-rule:nonzero}
    .fil5 {fill:#F0F3F7;fill-rule:nonzero}
    .fil17 {fill:#F2B10D;fill-rule:nonzero}
    .fil24 {fill:#F5AD80;fill-rule:nonzero}
    .fil21 {fill:white;fill-rule:nonzero}
    .fil9 {fill:#7C5813;fill-rule:nonzero;fill-opacity:0.200000}
    .fil19 {fill:#7C5813;fill-rule:nonzero;fill-opacity:0.701961}
    .fil18 {fill:#7C5813;fill-rule:nonzero;fill-opacity:0.800000}
    .fil23 {fill:white;fill-rule:nonzero;fill-opacity:0.800000}
   ]]>
  </style>
 </defs>
 <g id="Layer_x0020_1">
  <metadata id="CorelCorpID_0Corel-Layer"/>
  <path class="fil0" d="M17015.35 24546.36c0,0 -3678.63,-3595.17 -3505.33,-4683.32 173.31,-1088.16 1495.2,730.1 1495.2,730.1 0,0 -1335.16,-2261.18 -1119.17,-2742.14 215.97,-480.96 1348.33,-1873.87 2012.85,1062.94 664.52,2936.82 664.52,2936.82 664.52,2936.82 0,0 129.05,-856.99 681.2,-1269.47 552.13,-412.48 437.71,2765.63 437.71,2765.63l57.88 1653.41 -439.56 391.74 -285.3 -845.72z"/>
  <path class="fil1" d="M16218.27 23420.44c0,0 -2084.74,-2269.6 -2378.13,-3189.99 -227.15,-712.67 856.2,1610.12 2378.13,3189.99z"/>
  <path class="fil1" d="M15014.84 20282.82c0,0 -1602.51,-2444.67 -391.6,-2811.54 0,0 56.94,-1.59 25.34,54.2 -31.62,55.77 -402.75,167.24 -417.21,617.06 -14.48,449.81 783.47,2140.29 783.47,2140.29z"/>
  <path class="fil1" d="M16449.74 22151.33c0,0 -486.31,-2716.93 -829.01,-3497.74 0,0 -88.53,-169.77 -11.45,-150.36 208.05,281.42 899.22,3071.72 840.46,3648.1z"/>
  <polygon class="fil2" points="17113.38,24192.33 17077.96,24204.18 15025.22,18929.56 15060.64,18917.71 "/>
  <polygon class="fil2" points="16275.93,22617.24 14897.83,21371.48 14917.26,21336.1 16295.37,22581.86 "/>
  <polygon class="fil2" points="15488.76,21903.43 15194.54,21375.38 15226.18,21355.49 15520.43,21883.56 "/>
  <polygon class="fil2" points="15669,22062.28 15184.48,21877 15188.97,21832.33 15673.49,22017.61 "/>
  <polygon class="fil2" points="16804.29,23410.81 16765.92,23389.76 17185.22,21600.29 17223.57,21621.34 "/>
  <path class="fil2" d="M17123.74 22530.96c-42.84,20.04 -91.47,24.36 -146.26,4.15l-8.72 -3.23 -5.21 -9.57c-3.56,-6.48 -87.05,-162.18 -128.2,-436.91l39.02 1.48c33.87,226.19 98.06,369.18 116.23,406.43 232.06,72.56 345.19,-399.74 346.26,-404.58l38.43 21.02c-4.04,17.17 -82.01,341.99 -251.54,421.2z"/>
  <path class="fil2" d="M15579.7 20334.05c-13,-6.06 -321.29,-154.33 -577.01,-662.75l32.95 -17.44c245.87,488.83 548.33,635.24 551.34,636.66l-7.28 43.54z"/>
  <path class="fil2" d="M15709.54 20622.84l-37.2 -25.15c1.66,-4.84 163.8,-492.06 -6.5,-1012.08l36.62 -8.55c176.33,538.5 8.79,1040.76 7.09,1045.78z"/>
  <polygon class="fil3" points="16566.05,26094.1 16137.24,26094.1 16137.24,21071.04 16566.05,21071.04 "/>
  <polygon class="fil3" points="26673.44,26094.1 26244.63,26094.1 26244.63,21071.04 26673.44,21071.04 "/>
  <path class="fil4" d="M27472.77 22085.46l-12130.93 0c-158.69,0 -287.33,-128.66 -287.33,-287.35l0 -199.63c0,-158.69 128.64,-287.33 287.33,-287.33l12130.93 0c158.69,0 287.35,128.64 287.35,287.33l0 199.63c0,158.69 -128.66,287.35 -287.35,287.35z"/>
  <path class="fil4" d="M27472.77 23191.61l-12130.93 0c-158.69,0 -287.33,-128.64 -287.33,-287.33l0 -199.63c0,-158.69 128.64,-287.35 287.33,-287.35l12130.93 0c158.69,0 287.35,128.66 287.35,287.35l0 199.63c0,158.69 -128.66,287.33 -287.35,287.33z"/>
  <polygon class="fil4" points="27760.12,24559.57 15054.51,24559.57 15054.51,24192.05 27760.12,24192.05 "/>
  <path class="fil3" d="M15630.22 21698.31c0,58.19 -47.17,105.36 -105.37,105.36 -58.21,0 -105.39,-47.17 -105.39,-105.36 0,-58.19 47.18,-105.37 105.39,-105.37 58.19,0 105.37,47.17 105.37,105.37z"/>
  <path class="fil3" d="M15630.22 22804.46c0,58.19 -47.17,105.37 -105.37,105.37 -58.21,0 -105.39,-47.17 -105.39,-105.37 0,-58.19 47.18,-105.36 105.39,-105.36 58.19,0 105.37,47.17 105.37,105.36z"/>
  <path class="fil3" d="M27398.33 21698.31c0,58.19 -47.2,105.36 -105.39,105.36 -58.19,0 -105.37,-47.17 -105.37,-105.36 0,-58.19 47.18,-105.37 105.37,-105.37 58.19,0 105.39,47.17 105.39,105.37z"/>
  <path class="fil3" d="M27398.33 22804.46c0,58.19 -47.2,105.37 -105.39,105.37 -58.19,0 -105.37,-47.17 -105.37,-105.37 0,-58.19 47.18,-105.36 105.37,-105.36 58.19,0 105.39,47.17 105.39,105.36z"/>
  <path class="fil5" d="M28061.52 17653.04l0 8588.52c0,584.89 -474.13,1059.04 -1059.02,1059.04l-18524.57 0c-584.89,0 -1059.04,-474.16 -1059.04,-1059.04l0 -8588.52c0,-584.89 474.16,-1059.04 1059.04,-1059.04l18524.57 0c584.89,0 1059.02,474.16 1059.02,1059.04z"/>
  <path class="fil6" d="M9811.65 16594l0 10706.61 -1491.71 0c-497.65,0 -901.05,-403.41 -901.05,-901.05l0 -8904.51c0,-497.62 403.41,-901.05 901.05,-901.05l1491.71 0z"/>
  <path class="fil6" d="M28061.52 17383.64l0 9127.32c0,436.12 -353.52,789.64 -789.62,789.64l-1603.12 0 0 -10706.61 1603.12 0c436.1,0 789.62,353.54 789.62,789.64z"/>
  <path class="fil6 str0" d="M26865.13 21217.3c403.19,0 730.01,326.85 730.01,730.01 0,403.16 -326.83,729.99 -730.01,729.99 -403.17,0 -729.99,-326.83 -729.99,-729.99 0,-403.17 326.83,-730.01 729.99,-730.01z"/>
  <path class="fil7 str1" d="M8455.9 23463.43c88.03,0 159.37,71.34 159.37,159.37 0,88 -71.34,159.37 -159.37,159.37 -88,0 -159.35,-71.36 -159.35,-159.37 0,-88.03 71.34,-159.37 159.35,-159.37z"/>
  <path class="fil7 str1" d="M8615.26 21214.49l0 1689.6c0,54.9 -44.51,99.41 -99.43,99.41l-119.87 0c-54.92,0 -99.41,-44.52 -99.41,-99.41l0 -1689.6c0,-54.92 44.49,-99.43 99.41,-99.43l119.87 0c54.92,0 99.43,44.52 99.43,99.43z"/>
  <path class="fil7 str1" d="M7854.06 22565.11c45.24,0 81.9,36.67 81.9,81.9 0,45.24 -36.66,81.9 -81.9,81.9 -45.23,0 -81.9,-36.66 -81.9,-81.9 0,-45.23 36.67,-81.9 81.9,-81.9z"/>
  <path class="fil8" d="M12915.56 24942.76l0 -5251.85c0,-269.99 243.14,-488.86 543.08,-488.86l8563.15 0c299.94,0 543.07,218.87 543.07,488.86l0 5251.85c0,269.99 -243.14,488.86 -543.07,488.86l-8563.15 0c-299.94,0 -543.08,-218.87 -543.08,-488.86z"/>
  <path class="fil9" d="M14214.25 23089.74l1672.61 -179.91 -131.63 -2627 -1939.54 75.48 220.22 2584.45c7.7,90.34 88.2,156.69 178.34,146.98z"/>
  <path class="fil10" d="M15449.69 21768.54c5.43,-195.42 -4.54,-391.28 -29.75,-585.13 -19.46,-149.56 -51.93,-306.24 -153.04,-418.15 -110.38,-122.14 -292.63,-168.5 -452.26,-128.24 -159.61,40.26 -293.74,160.28 -365.87,308.25 -72.15,147.98 -85.15,321.02 -51.87,482.24 30.82,149.33 99.06,307 39.13,447.22l1013.65 -106.19z"/>
  <path class="fil11" d="M14785.66 21406.59l0 309.03c0,0 156.57,264.63 300.39,6.17l-12.59 -315.2 -287.81 0z"/>
  <path class="fil11" d="M14848.73 20673.92c-266.56,34.96 -309.18,342.94 -245.13,586.33 47.81,181.59 156.6,365.02 327.61,360.59 171.01,-4.43 274.09,-238.19 304.69,-381.61 49.25,-230.73 40.11,-621.33 -387.18,-565.3z"/>
  <path class="fil11" d="M14635.39 21192.92c0,0 -10.3,-102.03 -92.61,-67.98 -82.29,34.03 18.1,263.95 109.75,237.54 91.63,-26.41 -17.14,-169.56 -17.14,-169.56z"/>
  <path class="fil11" d="M15182.89 21187.79c0,0 2.96,-102.51 87.5,-74.46 84.52,28.05 0.89,264.56 -92.41,244.8 -93.3,-19.76 4.91,-170.34 4.91,-170.34z"/>
  <path class="fil12" d="M14932.4 21634.01c-40.5,0 -80.94,-10.3 -116.14,-31.06 -6.3,-3.71 -8.37,-11.82 -4.71,-18.13 3.73,-6.35 11.8,-8.37 18.15,-4.69 65.32,38.47 154.61,35.48 217.23,-7.07 6.04,-4.12 14.26,-2.59 18.41,3.49 4.08,6.04 2.53,14.26 -3.51,18.37 -38.1,25.98 -83.77,39.08 -129.42,39.08z"/>
  <path class="fil13" d="M15065.07 20842.36c3.53,161.96 -183.8,35.11 -268.86,172.98 -85.06,137.86 -229.59,243.86 -390.91,258.71 -57.23,-139.93 56.91,-0.63 73.02,-150.97 16.12,-150.32 86.52,-298.41 207.68,-388.83 121.15,-90.45 295.05,-113.89 427.02,-40.13 110.47,61.72 179.34,180.96 208.9,304.01 29.55,123.06 26.87,191.19 21.9,317.62 -184.78,-98.1 -304.58,-265.78 -278.76,-473.39z"/>
  <path class="fil14" d="M15232.27 21358.13c0,18 -14.59,32.59 -32.59,32.59 -17.99,0 -32.58,-14.59 -32.58,-32.59 0,-17.99 14.59,-32.58 32.58,-32.58 18,0 32.59,14.59 32.59,32.58z"/>
  <path class="fil14" d="M14644.65 21359.31c0,17.34 -14.07,31.41 -31.41,31.41 -17.36,0 -31.41,-14.07 -31.41,-31.41 0,-17.34 14.05,-31.41 31.41,-31.41 17.34,0 31.41,14.07 31.41,31.41z"/>
  <path class="fil14" d="M14785.66 21715.62l-396.27 200.5 299.85 1098.82 697.52 -33.35 62.94 -1213.07 -363.64 -46.74c0,0 -107.2,189.6 -300.39,-6.17z"/>
  <path class="fil15 str2" d="M14671.87 21802.21c0,0 117.6,186.61 266.8,120.37"/>
  <line class="fil15 str2" x1="14938.68" y1="21922.58" x2="14955.39" y2= "21869.52" />
  <path class="fil15 str2" d="M15250.85 21767.62c0,0 -94.55,199.28 -250.56,151.28"/>
  <line class="fil15 str2" x1="15000.29" y1="21918.89" x2="14977.37" y2= "21868.19" />
  <path class="fil16" d="M14994.47 22072.68c0,10.6 -8.59,19.17 -19.17,19.17 -10.58,0 -19.15,-8.57 -19.15,-19.17 0,-10.58 8.57,-19.15 19.15,-19.15 10.57,0 19.17,8.57 19.17,19.15z"/>
  <path class="fil16" d="M15006.27 22301.69c0,10.6 -8.57,19.17 -19.15,19.17 -10.58,0 -19.15,-8.57 -19.15,-19.17 0,-10.58 8.57,-19.15 19.15,-19.15 10.58,0 19.15,8.57 19.15,19.15z"/>
  <path class="fil16" d="M15025.44 22505.46c0,10.58 -8.57,19.15 -19.17,19.15 -10.58,0 -19.15,-8.57 -19.15,-19.15 0,-10.6 8.57,-19.17 19.15,-19.17 10.6,0 19.17,8.57 19.17,19.17z"/>
  <path class="fil17" d="M14581.84 21818.74l386.13 1196.2 -310.69 26.87 -267.9 -988.29c0,0 -98.13,-227.5 192.45,-234.79z"/>
  <path class="fil17" d="M15285.59 21743.19l-123.38 1250.89 309.31 -39.7 51.97 -1022.62c0,0 47.57,-243.14 -237.91,-188.57z"/>
  <path class="fil18" d="M14758.57 23983.13l21.13 0 73.72 172.21 -27.22 0 -17.28 -42.53 -81.94 0 -17.06 42.53 -27.26 0 75.9 -172.21zm41.87 109.27l0 0 -32.13 -79.1 -0.48 0 -32.61 79.1 65.21 0z"/>
  <path class="fil18" d="M14929.61 23983.13l23.33 0 0 123.1c0,10.86 -1.72,19.78 -5.1,26.67 -3.38,6.87 -7.65,12.28 -12.78,16.27 -5.11,3.97 -10.56,6.76 -16.38,8.31 -5.89,1.48 -11.23,2.25 -16.09,2.25 -12.17,0 -22.38,-3.07 -30.75,-9.38 -8.37,-6.17 -13.68,-15.68 -15.92,-28.27l22.85 -5.1c1.31,6.41 3.99,11.52 8.03,15.31 4.04,3.69 9.31,5.58 15.79,5.58 5.89,0 10.51,-1.18 14.02,-3.44 3.49,-2.25 6.17,-5.21 8.13,-8.9 1.94,-3.56 3.25,-7.78 3.91,-12.47 0.61,-4.76 0.96,-9.49 0.96,-14.37l0 -115.55z"/>
  <polygon class="fil18" points="14993.09,23983.13 15016.43,23983.13 15016.43,24057.59 15018.39,24057.59 15094.51,23983.13 15127.12,23983.13 15043.91,24062.69 15132.7,24155.34 15098.61,24155.34 15018.39,24069.24 15016.43,24069.24 15016.43,24155.34 14993.09,24155.34 "/>
  <polygon class="fil18" points="15150.7,23983.13 15174.03,23983.13 15174.03,24057.59 15176,24057.59 15252.14,23983.13 15284.72,23983.13 15201.54,24062.69 15290.3,24155.34 15256.24,24155.34 15176,24069.24 15174.03,24069.24 15174.03,24155.34 15150.7,24155.34 "/>
  <polygon class="fil18" points="15308.3,23983.13 15416.5,23983.13 15416.5,24005.03 15331.66,24005.03 15331.66,24059.01 15410.7,24059.01 15410.7,24080.93 15331.66,24080.93 15331.66,24155.34 15308.3,24155.34 "/>
  <path class="fil18" d="M15501.67 23983.13l23.33 0 0 123.1c0,10.86 -1.72,19.78 -5.1,26.67 -3.38,6.87 -7.66,12.28 -12.78,16.27 -5.1,3.97 -10.56,6.76 -16.38,8.31 -5.89,1.48 -11.23,2.25 -16.09,2.25 -12.17,0 -22.38,-3.07 -30.75,-9.38 -8.38,-6.17 -13.68,-15.68 -15.93,-28.27l22.86 -5.1c1.31,6.41 3.99,11.52 8.03,15.31 4.04,3.69 9.31,5.58 15.79,5.58 5.89,0 10.51,-1.18 14.02,-3.44 3.49,-2.25 6.17,-5.21 8.13,-8.9 1.96,-3.56 3.25,-7.78 3.91,-12.47 0.61,-4.76 0.96,-9.49 0.96,-14.37l0 -115.55z"/>
  <polygon class="fil18" points="15601.15,24005.03 15545.68,24005.03 15545.68,23983.13 15679.94,23983.13 15679.94,24005.03 15624.48,24005.03 15624.48,24155.34 15601.15,24155.34 "/>
  <path class="fil18" d="M15758.5 23983.13l23.34 0 0 123.1c0,10.86 -1.72,19.78 -5.1,26.67 -3.38,6.87 -7.66,12.28 -12.76,16.27 -5.1,3.97 -10.58,6.76 -16.4,8.31 -5.87,1.48 -11.21,2.25 -16.09,2.25 -12.17,0 -22.38,-3.07 -30.76,-9.38 -8.37,-6.17 -13.65,-15.68 -15.92,-28.27l22.88 -5.1c1.28,6.41 3.97,11.52 8,15.31 4.04,3.69 9.33,5.58 15.79,5.58 5.89,0 10.51,-1.18 14.02,-3.44 3.51,-2.25 6.17,-5.21 8.13,-8.9 1.96,-3.56 3.27,-7.78 3.93,-12.47 0.59,-4.76 0.94,-9.49 0.94,-14.37l0 -115.55z"/>
  <polygon class="fil18" points="15822,23983.13 15845.33,23983.13 15845.33,24054.69 15934.58,24054.69 15934.58,23983.13 15957.94,23983.13 15957.94,24155.34 15934.58,24155.34 15934.58,24076.59 15845.33,24076.59 15845.33,24155.34 15822,24155.34 "/>
  <path class="fil18" d="M15998.31 23983.13l60.11 0c12.17,0 22.79,1.42 32,4.15 9.14,2.75 17.1,6.41 23.82,11.06 6.72,4.63 12.3,9.97 16.81,15.96 4.45,6 7.94,12.17 10.56,18.48 2.55,6.3 4.45,12.65 5.58,19 1.13,6.3 1.72,12.13 1.72,17.47 0,11.04 -2.07,21.72 -6.11,32 -4.04,10.27 -10.03,19.48 -17.99,27.5 -7.96,8.02 -17.82,14.48 -29.57,19.37 -11.76,4.86 -25.3,7.24 -40.74,7.24l-56.18 0 0 -172.21zm23.33 150.36l0 0 29.47 0c9.9,0 19.24,-1.31 28.09,-4.03 8.83,-2.69 16.56,-6.65 23.2,-12 6.65,-5.35 11.93,-12.06 15.86,-20.09 3.86,-8.07 5.82,-17.45 5.82,-28.14 0,-5.47 -0.89,-11.95 -2.66,-19.3 -1.79,-7.44 -5.17,-14.44 -10.1,-21.09 -5,-6.65 -11.82,-12.23 -20.55,-16.86 -8.79,-4.62 -20.15,-6.96 -34.09,-6.96l-35.05 0 0 128.46z"/>
  <polygon class="fil18" points="16182.48,23983.13 16205.81,23983.13 16205.81,24057.59 16207.78,24057.59 16283.89,23983.13 16316.5,23983.13 16233.3,24062.69 16322.08,24155.34 16287.99,24155.34 16207.78,24069.24 16205.81,24069.24 16205.81,24155.34 16182.48,24155.34 "/>
  <path class="fil18" d="M16730.55 24020.36c-4.89,-6.35 -11.06,-11.17 -18.47,-14.55 -7.48,-3.44 -15.2,-5.1 -23.1,-5.1 -9.75,0 -18.54,1.77 -26.43,5.45 -7.83,3.62 -14.61,8.61 -20.2,14.96 -5.58,6.3 -9.93,13.72 -13,22.22 -3.1,8.55 -4.62,17.69 -4.62,27.37 0,9.07 1.48,17.69 4.38,25.82 2.9,8.09 7.13,15.2 12.65,21.37 5.52,6.19 12.24,11.06 20.2,14.61 7.96,3.57 16.93,5.34 27.02,5.34 9.86,0 18.52,-2.01 26,-6.11 7.44,-4.04 13.79,-9.69 18.95,-17.06l19.72 14.85c-1.31,1.79 -3.57,4.41 -6.83,7.72 -3.2,3.34 -7.48,6.65 -12.89,9.99 -5.34,3.31 -11.76,6.17 -19.3,8.66 -7.55,2.55 -16.27,3.8 -26.2,3.8 -13.59,0 -25.89,-2.59 -36.81,-7.76 -10.93,-5.17 -20.26,-12 -27.96,-20.44 -7.72,-8.44 -13.61,-17.99 -17.65,-28.57 -4.03,-10.62 -6.06,-21.37 -6.06,-32.24 0,-13.3 2.14,-25.61 6.54,-36.88 4.39,-11.23 10.52,-20.96 18.34,-29.16 7.9,-8.2 17.34,-14.55 28.38,-19.06 10.99,-4.58 23.16,-6.83 36.46,-6.83 11.34,0 22.51,2.2 33.44,6.59 10.93,4.34 19.89,11.06 26.91,20.19l-19.48 14.79z"/>
  <path class="fil18" d="M16835.65 23983.13l23.34 0 0 123.1c0,10.86 -1.72,19.78 -5.11,26.67 -3.38,6.87 -7.65,12.28 -12.76,16.27 -5.13,3.97 -10.58,6.76 -16.4,8.31 -5.89,1.48 -11.23,2.25 -16.1,2.25 -12.17,0 -22.38,-3.07 -30.75,-9.38 -8.37,-6.17 -13.67,-15.68 -15.92,-28.27l22.86 -5.1c1.31,6.41 3.99,11.52 8.02,15.31 4.04,3.69 9.31,5.58 15.79,5.58 5.89,0 10.51,-1.18 14.02,-3.44 3.49,-2.25 6.17,-5.21 8.14,-8.9 1.96,-3.56 3.27,-7.78 3.9,-12.47 0.61,-4.76 0.96,-9.49 0.96,-14.37l0 -115.55z"/>
  <polygon class="fil18" points="16897.42,23983.13 16932.2,23983.13 16986.91,24113.54 16987.91,24113.54 17042.13,23983.13 17076.94,23983.13 17076.94,24155.34 17053.6,24155.34 17053.6,24013.77 17053.12,24013.77 16994.97,24155.34 16979.36,24155.34 16921.23,24013.77 16920.75,24013.77 16920.75,24155.34 16897.42,24155.34 "/>
  <path class="fil18" d="M17239.43 24020.36c-4.89,-6.35 -11.06,-11.17 -18.48,-14.55 -7.48,-3.44 -15.2,-5.1 -23.09,-5.1 -9.75,0 -18.54,1.77 -26.43,5.45 -7.83,3.62 -14.61,8.61 -20.2,14.96 -5.59,6.3 -9.93,13.72 -13,22.22 -3.1,8.55 -4.62,17.69 -4.62,27.37 0,9.07 1.48,17.69 4.38,25.82 2.9,8.09 7.13,15.2 12.65,21.37 5.52,6.19 12.24,11.06 20.2,14.61 7.96,3.57 16.93,5.34 27.02,5.34 9.86,0 18.52,-2.01 26,-6.11 7.44,-4.04 13.78,-9.69 18.95,-17.06l19.72 14.85c-1.31,1.79 -3.57,4.41 -6.83,7.72 -3.2,3.34 -7.48,6.65 -12.89,9.99 -5.34,3.31 -11.76,6.17 -19.3,8.66 -7.55,2.55 -16.27,3.8 -26.2,3.8 -13.59,0 -25.89,-2.59 -36.81,-7.76 -10.93,-5.17 -20.26,-12 -27.98,-20.44 -7.7,-8.44 -13.59,-17.99 -17.63,-28.57 -4.04,-10.62 -6.06,-21.37 -6.06,-32.24 0,-13.3 2.14,-25.61 6.54,-36.88 4.39,-11.23 10.51,-20.96 18.34,-29.16 7.9,-8.2 17.34,-14.55 28.38,-19.06 10.99,-4.58 23.16,-6.83 36.46,-6.83 11.34,0 22.51,2.2 33.44,6.59 10.93,4.34 19.89,11.06 26.91,20.19l-19.48 14.79z"/>
  <polygon class="fil18" points="17290.79,23983.13 17321.43,23983.13 17416.26,24124.7 17416.74,24124.7 17416.74,23983.13 17440.15,23983.13 17440.15,24155.34 17410.44,24155.34 17314.6,24013.77 17314.13,24013.77 17314.13,24155.34 17290.79,24155.34 "/>
  <path class="fil18" d="M17538.35 23983.13l21.16 0 73.7 172.21 -27.2 0 -17.3 -42.53 -81.94 0 -17.06 42.53 -27.24 0 75.88 -172.21zm41.88 109.27l0 0 -32.13 -79.1 -0.48 0 -32.61 79.1 65.21 0z"/>
  <path class="fil18" d="M17709.39 23983.13l23.33 0 0 123.1c0,10.86 -1.72,19.78 -5.1,26.67 -3.38,6.87 -7.66,12.28 -12.76,16.27 -5.13,3.97 -10.58,6.76 -16.4,8.31 -5.87,1.48 -11.21,2.25 -16.09,2.25 -12.17,0 -22.38,-3.07 -30.75,-9.38 -8.38,-6.17 -13.65,-15.68 -15.92,-28.27l22.85 -5.1c1.31,6.41 3.99,11.52 8.03,15.31 4.04,3.69 9.31,5.58 15.79,5.58 5.89,0 10.51,-1.18 14.02,-3.44 3.49,-2.25 6.17,-5.21 8.13,-8.9 1.96,-3.56 3.27,-7.78 3.93,-12.47 0.59,-4.76 0.94,-9.49 0.94,-14.37l0 -115.55z"/>
  <path class="fil18" d="M17768.96 23983.13l60.11 0c12.17,0 22.79,1.42 31.99,4.15 9.16,2.75 17.1,6.41 23.82,11.06 6.72,4.63 12.3,9.97 16.81,15.96 4.45,6 7.96,12.17 10.56,18.48 2.56,6.3 4.47,12.65 5.59,19 1.13,6.3 1.72,12.13 1.72,17.47 0,11.04 -2.07,21.72 -6.11,32 -4.04,10.27 -10.03,19.48 -17.99,27.5 -7.96,8.02 -17.82,14.48 -29.57,19.37 -11.76,4.86 -25.3,7.24 -40.74,7.24l-56.18 0 0 -172.21zm23.33 150.36l0 0 29.47 0c9.9,0 19.24,-1.31 28.09,-4.03 8.83,-2.69 16.56,-6.65 23.2,-12 6.65,-5.35 11.95,-12.06 15.86,-20.09 3.86,-8.07 5.82,-17.45 5.82,-28.14 0,-5.47 -0.89,-11.95 -2.66,-19.3 -1.79,-7.44 -5.17,-14.44 -10.1,-21.09 -4.99,-6.65 -11.82,-12.23 -20.54,-16.86 -8.79,-4.62 -20.13,-6.96 -34.09,-6.96l-35.05 0 0 128.46z"/>
  <path class="fil18" d="M18006.86 23983.13l23.34 0 0 123.1c0,10.86 -1.72,19.78 -5.11,26.67 -3.38,6.87 -7.68,12.28 -12.78,16.27 -5.1,3.97 -10.56,6.76 -16.38,8.31 -5.89,1.48 -11.23,2.25 -16.1,2.25 -12.17,0 -22.4,-3.07 -30.77,-9.38 -8.35,-6.17 -13.65,-15.68 -15.9,-28.27l22.86 -5.1c1.31,6.41 3.97,11.52 8.02,15.31 4.04,3.69 9.31,5.58 15.79,5.58 5.87,0 10.51,-1.18 14.02,-3.44 3.49,-2.25 6.17,-5.21 8.14,-8.9 1.94,-3.56 3.25,-7.78 3.9,-12.47 0.59,-4.76 0.96,-9.49 0.96,-14.37l0 -115.55z"/>
  <polygon class="fil18" points="18070.35,23983.13 18178.56,23983.13 18178.56,24005.03 18093.69,24005.03 18093.69,24059.01 18172.73,24059.01 18172.73,24080.93 18093.69,24080.93 18093.69,24155.34 18070.35,24155.34 "/>
  <polygon class="fil18" points="18186.32,23983.13 18213.34,23983.13 18263.94,24123.28 18264.42,24123.28 18316.96,23983.13 18342.5,23983.13 18274.63,24155.34 18252.78,24155.34 "/>
  <polygon class="fil18" points="18363.18,23983.13 18393.82,23983.13 18488.65,24124.7 18489.13,24124.7 18489.13,23983.13 18512.54,23983.13 18512.54,24155.34 18482.83,24155.34 18387,24013.77 18386.52,24013.77 18386.52,24155.34 18363.18,24155.34 "/>
  <polygon class="fil18" points="18555.04,23983.13 18589.85,23983.13 18644.55,24113.54 18645.56,24113.54 18699.78,23983.13 18734.56,23983.13 18734.56,24155.34 18711.22,24155.34 18711.22,24013.77 18710.77,24013.77 18652.62,24155.34 18637,24155.34 18578.86,24013.77 18578.38,24013.77 18578.38,24155.34 18555.04,24155.34 "/>
  <polygon class="fil18" points="18777.16,23983.13 18800.5,23983.13 18800.5,24057.59 18802.46,24057.59 18878.57,23983.13 18911.18,23983.13 18827.98,24062.69 18916.77,24155.34 18882.68,24155.34 18802.46,24069.24 18800.5,24069.24 18800.5,24155.34 18777.16,24155.34 "/>
  <polygon class="fil18" points="18934.76,23983.13 18958.1,23983.13 18958.1,24133.49 19037.14,24133.49 19037.14,24155.34 18934.76,24155.34 "/>
  <polygon class="fil18" points="19331.57,23983.13 19439.78,23983.13 19439.78,24005.03 19354.91,24005.03 19354.91,24059.01 19433.95,24059.01 19433.95,24080.93 19354.91,24080.93 19354.91,24155.34 19331.57,24155.34 "/>
  <polygon class="fil18" points="19471.19,23983.13 19494.54,23983.13 19494.54,24133.49 19573.58,24133.49 19573.58,24155.34 19471.19,24155.34 "/>
  <path class="fil18" d="M19602.55 24119.36c4.23,6.35 9.62,11.04 16.16,14 6.59,2.99 13.37,4.52 20.31,4.52 3.93,0 7.89,-0.59 11.95,-1.83 4.04,-1.24 7.7,-3.03 11.04,-5.52 3.32,-2.38 6.07,-5.34 8.14,-8.96 2.14,-3.57 3.2,-7.68 3.2,-12.41 0,-6.65 -2.14,-11.71 -6.35,-15.22 -4.23,-3.43 -9.44,-6.41 -15.68,-8.72 -6.24,-2.31 -13.06,-4.62 -20.44,-6.83 -7.35,-2.14 -14.2,-5.23 -20.41,-9.14 -6.24,-3.86 -11.47,-9.09 -15.68,-15.68 -4.23,-6.54 -6.37,-15.44 -6.37,-26.61 0,-5.04 1.13,-10.38 3.27,-16.03 2.2,-5.69 5.65,-10.93 10.41,-15.55 4.69,-4.76 10.69,-8.68 18.1,-11.89 7.37,-3.1 16.2,-4.69 26.61,-4.69 9.44,0 18.41,1.24 27.02,3.86 8.61,2.62 16.14,7.9 22.62,15.79l-19 17.34c-2.93,-4.56 -7,-8.2 -12.41,-10.99 -5.35,-2.77 -11.41,-4.08 -18.24,-4.08 -6.48,0 -11.89,0.83 -16.16,2.49 -4.32,1.72 -7.76,3.93 -10.31,6.59 -2.62,2.68 -4.47,5.52 -5.48,8.61 -1.07,3.09 -1.59,5.93 -1.59,8.55 0,7.24 2.07,12.89 6.28,16.75 4.21,3.93 9.51,7.07 15.75,9.51 6.24,2.42 13,4.63 20.41,6.59 7.37,1.96 14.2,4.69 20.44,8.14 6.24,3.44 11.45,8.2 15.68,14.13 4.21,5.93 6.28,14 6.28,24.41 0,8.24 -1.53,15.74 -4.69,22.37 -3.21,6.65 -7.42,12.24 -12.76,16.75 -5.41,4.58 -11.69,8.09 -19,10.51 -7.31,2.44 -15.09,3.62 -23.34,3.62 -11.06,0 -21.5,-1.9 -31.43,-5.8 -9.86,-3.93 -17.75,-9.86 -23.57,-17.99l19.24 -16.57z"/>
  <polygon class="fil18" points="19730.94,23983.13 19765.75,23983.13 19820.43,24113.54 19821.46,24113.54 19875.68,23983.13 19910.46,23983.13 19910.46,24155.34 19887.13,24155.34 19887.13,24013.77 19886.65,24013.77 19828.52,24155.34 19812.91,24155.34 19754.76,24013.77 19754.28,24013.77 19754.28,24155.34 19730.94,24155.34 "/>
  <path class="fil18" d="M19949.13 23983.13l60.09 0c12.19,0 22.81,1.42 32.02,4.15 9.14,2.75 17.1,6.41 23.81,11.06 6.72,4.63 12.28,9.97 16.8,15.96 4.47,6 7.96,12.17 10.58,18.48 2.55,6.3 4.45,12.65 5.58,19 1.13,6.3 1.72,12.13 1.72,17.47 0,11.04 -2.07,21.72 -6.11,32 -4.06,10.27 -10.05,19.48 -18.02,27.5 -7.94,8.02 -17.8,14.48 -29.55,19.37 -11.78,4.86 -25.3,7.24 -40.74,7.24l-56.19 0 0 -172.21zm23.34 150.36l0 0 29.44 0c9.93,0 19.26,-1.31 28.09,-4.03 8.85,-2.69 16.57,-6.65 23.23,-12 6.65,-5.35 11.93,-12.06 15.85,-20.09 3.86,-8.07 5.82,-17.45 5.82,-28.14 0,-5.47 -0.89,-11.95 -2.68,-19.3 -1.77,-7.44 -5.17,-14.44 -10.1,-21.09 -4.97,-6.65 -11.8,-12.23 -20.55,-16.86 -8.79,-4.62 -20.13,-6.96 -34.09,-6.96l-35.03 0 0 128.46z"/>
  <polygon class="fil18" points="20133.28,23983.13 20156.61,23983.13 20156.61,24133.49 20235.68,24133.49 20235.68,24155.34 20133.28,24155.34 "/>
  <path class="fil18" d="M20255.61 23983.13l60.11 0c12.17,0 22.79,1.42 32.02,4.15 9.14,2.75 17.1,6.41 23.8,11.06 6.72,4.63 12.3,9.97 16.81,15.96 4.45,6 7.96,12.17 10.58,18.48 2.55,6.3 4.45,12.65 5.58,19 1.11,6.3 1.72,12.13 1.72,17.47 0,11.04 -2.09,21.72 -6.13,32 -4.04,10.27 -10.03,19.48 -18,27.5 -7.96,8.02 -17.82,14.48 -29.57,19.37 -11.76,4.86 -25.3,7.24 -40.74,7.24l-56.18 0 0 -172.21zm23.33 150.36l0 0 29.46 0c9.93,0 19.24,-1.31 28.09,-4.03 8.85,-2.69 16.57,-6.65 23.23,-12 6.63,-5.35 11.93,-12.06 15.85,-20.09 3.86,-8.07 5.8,-17.45 5.8,-28.14 0,-5.47 -0.87,-11.95 -2.66,-19.3 -1.79,-7.44 -5.17,-14.44 -10.1,-21.09 -5,-6.65 -11.82,-12.23 -20.55,-16.86 -8.79,-4.62 -20.13,-6.96 -34.09,-6.96l-35.05 0 0 128.46z"/>
  <path class="fil18" d="M20439.78 23983.13l60.57 0c10.99,0 20.09,1.53 27.2,4.52 7.2,3.01 12.78,6.83 16.93,11.45 4.17,4.58 7.02,9.79 8.61,15.55 1.66,5.78 2.44,11.36 2.44,16.7 0,5.35 -0.79,10.86 -2.44,16.62 -1.59,5.76 -4.45,10.93 -8.61,15.55 -4.15,4.65 -9.73,8.44 -16.93,11.47 -7.11,3.03 -16.2,4.45 -27.2,4.45l-37.23 0 0 75.9 -23.33 0 0 -172.21zm23.33 75.88l0 0 30.65 0c4.52,0 9.03,-0.35 13.48,-1.07 4.45,-0.7 8.44,-2.07 11.93,-4.04 3.51,-1.9 6.3,-4.76 8.37,-8.38 2.14,-3.62 3.2,-8.37 3.2,-14.18 0,-5.89 -1.07,-10.57 -3.2,-14.26 -2.07,-3.69 -4.86,-6.41 -8.37,-8.44 -3.49,-1.9 -7.48,-3.21 -11.93,-3.97 -4.45,-0.76 -8.96,-1.13 -13.48,-1.13l-30.65 0 0 55.46z"/>
  <path class="fil18" d="M20730.7 24059.01l0 84.93c-4.21,2.62 -9.03,4.86 -14.37,6.78 -5.35,2.01 -10.93,3.67 -16.69,4.97 -5.76,1.44 -11.58,2.44 -17.52,3.1 -5.89,0.59 -11.47,0.94 -16.64,0.94 -14.59,0 -27.61,-2.38 -39.06,-7.24 -11.41,-4.87 -21.09,-11.45 -28.92,-19.72 -7.85,-8.31 -13.85,-17.93 -18,-28.86 -4.17,-10.93 -6.17,-22.44 -6.17,-34.68 0,-12.78 2.18,-24.71 6.65,-35.75 4.45,-11.06 10.62,-20.54 18.45,-28.7 7.89,-8.13 17.34,-14.42 28.4,-19.06 10.99,-4.62 23.09,-6.93 36.22,-6.93 15.92,0 28.86,1.96 38.89,5.93 10.1,3.99 18.54,9.44 25.3,16.44l-16.51 17.71c-7.13,-6.78 -14.65,-11.52 -22.61,-14.2 -7.96,-2.66 -16.34,-3.97 -25.06,-3.97 -9.92,0 -18.82,1.77 -26.78,5.45 -7.89,3.62 -14.72,8.55 -20.43,14.72 -5.65,6.13 -10.04,13.44 -13.13,21.75 -3.07,8.31 -4.63,17.23 -4.63,26.61 0,9.73 1.72,18.76 5.11,27.13 3.44,8.37 8.13,15.61 14.13,21.79 6,6.19 13.07,10.99 21.16,14.5 8.13,3.44 16.97,5.21 26.54,5.21 8.24,0 16.09,-0.83 23.44,-2.38 7.37,-1.48 13.65,-3.73 18.82,-6.65l0 -47.92 -38.17 0 0 -21.92 61.57 0z"/>
  <path class="fil19" d="M21105.54 20486.31l-4244.59 0c-52.47,0 -95.03,-42.53 -95.03,-95l0 -66.02c0,-52.45 42.56,-95.01 95.03,-95.01l4244.59 0c52.47,0 95,42.56 95,95.01l0 66.02c0,52.48 -42.53,95 -95,95z"/>
  <path class="fil19" d="M21105.54 21649.97l-4244.59 0c-52.47,0 -95.03,-42.55 -95.03,-95.03l0 -66c0,-52.48 42.56,-95 95.03,-95l4244.59 0c52.47,0 95,42.53 95,95l0 66c0,52.48 -42.53,95.03 -95,95.03z"/>
  <path class="fil19" d="M21105.54 22135.97l-4244.59 0c-52.47,0 -95.03,-42.55 -95.03,-95l0 -66.02c0,-52.48 42.56,-95.01 95.03,-95.01l4244.59 0c52.47,0 95,42.53 95,95.01l0 66.02c0,52.45 -42.53,95 -95,95z"/>
  <path class="fil19" d="M21031.45 22730.63l-1797.58 0c-52.48,0 -95,-42.53 -95,-95l0 -66c0,-52.48 42.53,-95.03 95,-95.03l1797.58 0c52.48,0 95,42.55 95,95.03l0 66c0,52.47 -42.53,95 -95,95z"/>
  <path class="fil20" d="M24214.44 19993.94c0,364.36 -295.38,659.74 -659.74,659.74 -364.36,0 -659.74,-295.38 -659.74,-659.74 0,-364.36 295.37,-659.72 659.74,-659.72 364.36,0 659.74,295.35 659.74,659.72z"/>
  <path class="fil21" d="M23972.13 19774.99c-26.74,-30.67 -73.41,-34 -104.1,-7.22l-490.23 426.57 -128.29 -185.52c-11.17,-16.23 -27.96,-27.11 -47.39,-30.67 -19.28,-3.47 -39,0.65 -55.22,11.91 -33.44,23.1 -41.85,69.16 -18.76,102.64l175 253.11c1.46,2.11 3.36,3.66 5,5.58 0.2,0.26 0.24,0.59 0.48,0.85l0.04 0.07c0.24,0.26 0.57,0.33 0.81,0.59 6.98,7.74 15.11,13.83 24.25,17.91 0.59,0.28 1.2,0.42 1.81,0.68 9.03,3.75 18.6,6.13 28.35,6.13 0.13,0 0.24,-0.04 0.37,-0.04 0.02,0 0.09,0.02 0.11,0.02 0.5,0 0.98,-0.26 1.48,-0.26 7.22,-0.2 14.42,-1.44 21.4,-3.78 3.47,-1.13 6.54,-3.12 9.86,-4.78 2.88,-1.46 5.93,-2.31 8.66,-4.21l0 -0.02c0.83,-0.59 1.22,-1.48 2.03,-2.09 1.57,-1.18 3.47,-1.64 4.97,-2.94l552.13 -480.42c14.89,-12.93 23.86,-30.91 25.23,-50.6 1.35,-19.65 -5.06,-38.65 -17.99,-53.5z"/>
  <path class="fil22" d="M19838.78 26673.69l-3761.8 0c-162.31,0 -293.87,-131.56 -293.87,-293.87l0 -204.17c0,-162.31 131.56,-293.89 293.87,-293.89l3761.8 0c162.31,0 293.89,131.58 293.89,293.89l0 204.17c0,162.31 -131.58,293.87 -293.89,293.87z"/>
  <path class="fil23" d="M17089.96 26315.94c6.35,9.51 14.44,16.49 24.3,21 9.86,4.51 20,6.74 30.47,6.74 5.8,0 11.76,-0.9 17.86,-2.75 6.06,-1.81 11.58,-4.54 16.57,-8.18 4.97,-3.67 9.07,-8.18 12.24,-13.52 3.14,-5.34 4.73,-11.54 4.73,-18.6 0,-9.99 -3.14,-17.56 -9.49,-22.81 -6.3,-5.23 -14.13,-9.59 -23.51,-13.13 -9.4,-3.53 -19.61,-6.93 -30.64,-10.2 -11.12,-3.3 -21.33,-7.83 -30.64,-13.7 -9.4,-5.85 -17.23,-13.68 -23.54,-23.54 -6.35,-9.83 -9.49,-23.16 -9.49,-39.93 0,-7.55 1.59,-15.57 4.93,-24.08 3.25,-8.53 8.42,-16.31 15.49,-23.38 7.06,-7.04 16.09,-12.93 27.2,-17.67 11.06,-4.76 24.36,-7.13 39.91,-7.13 14.13,0 27.61,1.96 40.5,5.87 12.89,3.88 24.23,11.78 33.98,23.69l-28.51 25.91c-4.34,-6.83 -10.57,-12.28 -18.6,-16.4 -8,-4.14 -17.14,-6.22 -27.37,-6.22 -9.73,0 -17.82,1.29 -24.23,3.84 -6.48,2.56 -11.63,5.8 -15.48,9.86 -3.93,3.99 -6.65,8.31 -8.27,12.93 -1.55,4.65 -2.38,8.88 -2.38,12.78 0,10.95 3.2,19.32 9.51,25.17 6.35,5.82 14.2,10.58 23.51,14.22 9.38,3.66 19.61,6.96 30.71,9.86 11.04,2.92 21.27,6.98 30.65,12.21 9.31,5.26 17.17,12.28 23.51,21.16 6.3,8.9 9.51,21.11 9.51,36.69 0,12.41 -2.38,23.6 -7.13,33.59 -4.76,9.97 -11.1,18.34 -19.19,25.15 -8,6.83 -17.52,12.04 -28.44,15.7 -10.93,3.64 -22.62,5.45 -35.03,5.45 -16.51,0 -32.19,-2.9 -47.05,-8.75 -14.83,-5.82 -26.65,-14.83 -35.4,-27l28.81 -24.82z"/>
  <polygon class="fil23" points="17285.16,26111.62 17320.19,26111.62 17320.19,26369.96 17285.16,26369.96 "/>
  <path class="fil23" d="M17606.62 26225.47l0 127.33c-6.37,3.91 -13.48,7.31 -21.57,10.23 -8,2.93 -16.31,5.41 -24.93,7.46 -8.68,2.07 -17.41,3.6 -26.3,4.58 -8.85,0.98 -17.23,1.44 -25.02,1.44 -21.85,0 -41.4,-3.64 -58.54,-10.93 -17.17,-7.3 -31.6,-17.16 -43.43,-29.57 -11.82,-12.41 -20.78,-26.8 -27.02,-43.22 -6.17,-16.43 -9.27,-33.76 -9.27,-52 0,-19.19 3.34,-37.08 10.06,-53.61 6.65,-16.56 15.9,-30.93 27.72,-43.06 11.76,-12.19 25.95,-21.72 42.46,-28.66 16.57,-6.91 34.68,-10.41 54.39,-10.41 23.82,0 43.3,2.97 58.39,8.94 15.07,5.98 27.72,14.15 37.95,24.62l-24.84 26.63c-10.69,-10.2 -22.03,-17.31 -33.89,-21.33 -11.95,-4.04 -24.47,-6.02 -37.6,-6.02 -14.85,0 -28.2,2.73 -40.15,8.2 -11.93,5.5 -22.14,12.85 -30.62,22.09 -8.51,9.23 -15.09,20.13 -19.72,32.65 -4.65,12.54 -6.96,25.85 -6.96,39.94 0,14.61 2.56,28.16 7.66,40.67 5.1,12.54 12.17,23.45 21.2,32.67 8.96,9.22 19.54,16.49 31.71,21.7 12.17,5.24 25.43,7.85 39.81,7.85 12.41,0 24.17,-1.16 35.2,-3.45 11.06,-2.31 20.5,-5.67 28.27,-10.03l0 -71.89 -57.25 0 0 -32.85 92.3 0z"/>
  <path class="fil23" d="M17700.73 26111.62l0 158.36c0,8.01 1.07,16.36 3.27,25 2.2,8.64 5.89,16.6 10.99,23.91 5.11,7.26 11.76,13.24 20.07,17.86 8.27,4.65 18.47,6.94 30.64,6.94 12.13,0 22.33,-2.29 30.65,-6.94 8.26,-4.63 14.96,-10.6 20.09,-17.86 5.1,-7.31 8.72,-15.27 10.93,-23.91 2.18,-8.64 3.25,-16.99 3.25,-25l0 -158.36 35.05 0 0 163.81c0,15.09 -2.55,28.77 -7.68,41.07 -5.1,12.3 -12.17,22.92 -21.13,31.91 -9.03,9.01 -19.58,15.96 -31.78,20.78 -12.17,4.89 -25.28,7.31 -39.37,7.31 -14.13,0 -27.26,-2.42 -39.43,-7.31 -12.17,-4.82 -22.75,-11.78 -31.71,-20.78 -9.03,-8.99 -16.1,-19.61 -21.2,-31.91 -5.1,-12.3 -7.66,-25.98 -7.66,-41.07l0 -163.81 35.03 0z"/>
  <polygon class="fil23" points="17927.3,26111.62 17962.35,26111.62 17962.35,26369.96 17927.3,26369.96 "/>
  <polygon class="fil23" points="18028.74,26111.62 18195.48,26111.62 18195.48,26144.46 18063.76,26144.46 18063.76,26221.45 18186.34,26221.45 18186.34,26254.3 18063.76,26254.3 18063.76,26337.11 18202.09,26337.11 18202.09,26369.96 18028.74,26369.96 "/>
  <polygon class="fil23" points="18251.66,26111.62 18297.64,26111.62 18439.93,26323.98 18440.69,26323.98 18440.69,26111.62 18475.72,26111.62 18475.72,26369.96 18431.18,26369.96 18287.41,26157.59 18286.71,26157.59 18286.71,26369.96 18251.66,26369.96 "/>
  <polygon class="fil23" points="18596.11,26144.46 18512.97,26144.46 18512.97,26111.62 18714.35,26111.62 18714.35,26144.46 18631.14,26144.46 18631.14,26369.96 18596.11,26369.96 "/>
  <polygon class="fil23" points="18751.57,26111.62 18918.33,26111.62 18918.33,26144.46 18786.6,26144.46 18786.6,26221.45 18909.18,26221.45 18909.18,26254.3 18786.6,26254.3 18786.6,26337.11 18924.92,26337.11 18924.92,26369.96 18751.57,26369.96 "/>
  <path class="fil24" d="M30018.64 29266.5l0 -380.63c-635.59,-2663.45 -5296.63,-2515.91 -5296.63,-2515.91l-211.87 -4979.24c0,0 151.34,-1064.21 -1097.39,-1031.21 -976.31,-51.78 -847.9,1162.44 -847.9,1162.44l129.31 6723.37 0 1021.18 7324.46 0z"/>
 </g>
</svg>
